{
  "app": {
    "bot": {
      "token": "5240061253:AAFJT-nLCUXjTDjAvU_a_ajoG8ziEvS46Zg",
      "chat": "-787239240",
      "replyTo": ""
    },
    "base": {
      "lang": "en",
      "messenger": "telegram",
      "allureFolder": "./target/site/allure-maven-plugin/",
      "allureLinkPath": "",
      "chart": true,
      "chartName": "",
      "project": ""
    },
    "mail": {
      "host": "",
      "port": "",
      "username": "",
      "password": "",
      "enableSSL": false,
      "from": "",
      "recipient": ""
    },
    "mattermost": {
      "url": ""
    },
    "proxy": {
      "host": "",
      "port": 0,
      "username": "",
      "password": ""
    },
    "skype": {
      "appId": "",
      "appSecret": "",
      "serviceUrl": "",
      "conversationId": "",
      "botId": "",
      "botName": ""
    }
  }
}
